#SEQ_ID	RG	CHIP_ID	#SNPS	#READS	AVG_DP	FREEMIX	FREELK1	FREELK0	FREE_RH	FREE_RA	CHIPMIX	CHIPLK1	CHIPLK0	CHIP_RH	CHIP_RA	DPREF	RDPHET	RDPALT
02331	ALL	NA	124536	3904577	31.35	0.01086	576556.92	586294.86	NA	NA	NA	NA	NA	NA	NA	NA	NA	NA
#SEQ_ID	RG	CHIP_ID	#SNPS	#READS	AVG_DP	FREEMIX	FREELK1	FREELK0	FREE_RH	FREE_RA	CHIPMIX	CHIPLK1	CHIPLK0	CHIP_RH	CHIP_RA	DPREF	RDPHET	RDPALT
02331-01	ALL	NA	124536	4209249	33.80	0.00854	637250.02	644409.31	NA	NA	NA	NA	NA	NA	NA	NA	NA	NA
#SEQ_ID	RG	CHIP_ID	#SNPS	#READS	AVG_DP	FREEMIX	FREELK1	FREELK0	FREE_RH	FREE_RA	CHIPMIX	CHIPLK1	CHIPLK0	CHIP_RH	CHIP_RA	DPREF	RDPHET	RDPALT
02331-02	ALL	NA	124536	4336433	34.82	0.01144	657363.00	668758.94	NA	NA	NA	NA	NA	NA	NA	NA	NA	NA
