#SEQ_ID	RG	CHIP_ID	#SNPS	#READS	AVG_DP	FREEMIX	FREELK1	FREELK0	FREE_RH	FREE_RA	CHIPMIX	CHIPLK1	CHIPLK0	CHIP_RH	CHIP_RA	DPREF	RDPHET	RDPALT
02596	ALL	NA	124536	3492610	28.04	0.00019	518841.74	518851.86	NA	NA	NA	NA	NA	NA	NA	NA	NA	NA
#SEQ_ID	RG	CHIP_ID	#SNPS	#READS	AVG_DP	FREEMIX	FREELK1	FREELK0	FREE_RH	FREE_RA	CHIPMIX	CHIPLK1	CHIPLK0	CHIP_RH	CHIP_RA	DPREF	RDPHET	RDPALT
02596-01	ALL	NA	124536	3549874	28.50	0.00016	527913.69	527920.54	NA	NA	NA	NA	NA	NA	NA	NA	NA	NA
#SEQ_ID	RG	CHIP_ID	#SNPS	#READS	AVG_DP	FREEMIX	FREELK1	FREELK0	FREE_RH	FREE_RA	CHIPMIX	CHIPLK1	CHIPLK0	CHIP_RH	CHIP_RA	DPREF	RDPHET	RDPALT
02596-02	ALL	NA	124536	2951920	23.70	0.00242	435264.71	436067.91	NA	NA	NA	NA	NA	NA	NA	NA	NA	NA
