#SEQ_ID	RG	CHIP_ID	#SNPS	#READS	AVG_DP	FREEMIX	FREELK1	FREELK0	FREE_RH	FREE_RA	CHIPMIX	CHIPLK1	CHIPLK0	CHIP_RH	CHIP_RA	DPREF	RDPHET	RDPALT
03543	ALL	NA	124536	4191858	33.66	0.00033	604375.59	604411.23	NA	NA	NA	NA	NA	NA	NA	NA	NA	NA
#SEQ_ID	RG	CHIP_ID	#SNPS	#READS	AVG_DP	FREEMIX	FREELK1	FREELK0	FREE_RH	FREE_RA	CHIPMIX	CHIPLK1	CHIPLK0	CHIP_RH	CHIP_RA	DPREF	RDPHET	RDPALT
03543-01	ALL	NA	124536	3646582	29.28	0.00032	514757.18	514778.02	NA	NA	NA	NA	NA	NA	NA	NA	NA	NA
#SEQ_ID	RG	CHIP_ID	#SNPS	#READS	AVG_DP	FREEMIX	FREELK1	FREELK0	FREE_RH	FREE_RA	CHIPMIX	CHIPLK1	CHIPLK0	CHIP_RH	CHIP_RA	DPREF	RDPHET	RDPALT
03543-02	ALL	NA	124536	3074604	24.69	0.00054	456646.15	456689.73	NA	NA	NA	NA	NA	NA	NA	NA	NA	NA
