#SEQ_ID	RG	CHIP_ID	#SNPS	#READS	AVG_DP	FREEMIX	FREELK1	FREELK0	FREE_RH	FREE_RA	CHIPMIX	CHIPLK1	CHIPLK0	CHIP_RH	CHIP_RA	DPREF	RDPHET	RDPALT
03686	ALL	NA	124536	3986927	32.01	0.00180	584688.55	585356.75	NA	NA	NA	NA	NA	NA	NA	NA	NA	NA
#SEQ_ID	RG	CHIP_ID	#SNPS	#READS	AVG_DP	FREEMIX	FREELK1	FREELK0	FREE_RH	FREE_RA	CHIPMIX	CHIPLK1	CHIPLK0	CHIP_RH	CHIP_RA	DPREF	RDPHET	RDPALT
03686-01	ALL	NA	124536	3306120	26.55	0.00016	488578.28	488585.15	NA	NA	NA	NA	NA	NA	NA	NA	NA	NA
#SEQ_ID	RG	CHIP_ID	#SNPS	#READS	AVG_DP	FREEMIX	FREELK1	FREELK0	FREE_RH	FREE_RA	CHIPMIX	CHIPLK1	CHIPLK0	CHIP_RH	CHIP_RA	DPREF	RDPHET	RDPALT
03686-02	ALL	NA	124536	3540243	28.43	0.00015	511250.87	511254.93	NA	NA	NA	NA	NA	NA	NA	NA	NA	NA
