00352
Using column name '00352' for 00352.00352-hets.mutect.filtered.01.vcf.gz:00352
Using column name '00352-01' for 00352.00352-hets.mutect.filtered.01.vcf.gz:00352-01
Using column name '00352.00352-02.mutect.filtered.01_00352-01' for 00352.00352-02.mutect.filtered.01.vcf.gz:00352-01
Using column name '00352-02' for 00352.00352-02.mutect.filtered.01.vcf.gz:00352-02

VCFtools - v0.1.12a
(C) Adam Auton and Anthony Marcketta 2009

Parameters as interpreted:
	--vcf 00352.00352.mutect.filtered.hetsP2.vcf
	--extract-FORMAT-info GT
	--out merge

After filtering, kept 4 out of 4 Individuals
Outputting FORMAT information for GT
After filtering, kept 2805 out of a possible 2805 Sites
Run Time = 0.00 seconds
#CHROM	POS	ID	REF	ALT	QUAL	FILTER	INFO	FORMAT	00352	00352-01	00352.00352-02.mutect.filtered.01_00352-01	00352-02
chmod: cannot access `/00352/Processed/NGS.2_7_2b.WES_MosaicChildP2TumorP1Normal_Merged/': No such file or directory
00352
Using column name '00352' for 00352.00352-hets.mutect.filtered.02.vcf.gz:00352
Using column name '00352-02' for 00352.00352-hets.mutect.filtered.02.vcf.gz:00352-02
Using column name '00352-01' for 00352.00352-01.mutect.filtered.02.vcf.gz:00352-01
Using column name '00352.00352-01.mutect.filtered.02_00352-02' for 00352.00352-01.mutect.filtered.02.vcf.gz:00352-02

VCFtools - v0.1.12a
(C) Adam Auton and Anthony Marcketta 2009

Parameters as interpreted:
	--vcf 00352.00352.mutect.filtered.hetsP1.vcf
	--extract-FORMAT-info GT
	--out merge

After filtering, kept 4 out of 4 Individuals
Outputting FORMAT information for GT
After filtering, kept 2901 out of a possible 2901 Sites
Run Time = 0.00 seconds
#CHROM	POS	ID	REF	ALT	QUAL	FILTER	INFO	FORMAT	00352	00352-02	00352-01	00352.00352-01.mutect.filtered.02_00352-02
chr12	41463689	rs11179698	T	C	.	PASS	AC=2;AN=6;DB;SF=0,1;SOMATIC;VT=SNP	GT:BQ:DP:FA:SS:AD	0/1:33:30:0.467:2:16,14	0:.:35:0.00:0:35,0	0/1:32:33:0.182:2:27,6	0:.:35:0.00:0:35,0 0/1
chmod: cannot access `/00352/Processed/NGS.2_7_2b.WES_MosaicChildP1TumorP2Normal_Merged/': No such file or directory
00836
Using column name '00836' for 00836.00836-hets.mutect.filtered.01.vcf.gz:00836
Using column name '00836-01' for 00836.00836-hets.mutect.filtered.01.vcf.gz:00836-01
Using column name '00836.00836-02.mutect.filtered.01_00836-01' for 00836.00836-02.mutect.filtered.01.vcf.gz:00836-01
Using column name '00836-02' for 00836.00836-02.mutect.filtered.01.vcf.gz:00836-02

VCFtools - v0.1.12a
(C) Adam Auton and Anthony Marcketta 2009

Parameters as interpreted:
	--vcf 00836.00836.mutect.filtered.hetsP2.vcf
	--extract-FORMAT-info GT
	--out merge

After filtering, kept 4 out of 4 Individuals
Outputting FORMAT information for GT
After filtering, kept 3105 out of a possible 3105 Sites
Run Time = 0.00 seconds
#CHROM	POS	ID	REF	ALT	QUAL	FILTER	INFO	FORMAT	00836	00836-01	00836.00836-02.mutect.filtered.01_00836-01	00836-02
chmod: cannot access `/00836/Processed/NGS.2_7_2b.WES_MosaicChildP2TumorP1Normal_Merged/': No such file or directory
00836
Using column name '00836' for 00836.00836-hets.mutect.filtered.02.vcf.gz:00836
Using column name '00836-02' for 00836.00836-hets.mutect.filtered.02.vcf.gz:00836-02
Using column name '00836-01' for 00836.00836-01.mutect.filtered.02.vcf.gz:00836-01
Using column name '00836.00836-01.mutect.filtered.02_00836-02' for 00836.00836-01.mutect.filtered.02.vcf.gz:00836-02

VCFtools - v0.1.12a
(C) Adam Auton and Anthony Marcketta 2009

Parameters as interpreted:
	--vcf 00836.00836.mutect.filtered.hetsP1.vcf
	--extract-FORMAT-info GT
	--out merge

After filtering, kept 4 out of 4 Individuals
Outputting FORMAT information for GT
After filtering, kept 2694 out of a possible 2694 Sites
Run Time = 0.00 seconds
#CHROM	POS	ID	REF	ALT	QUAL	FILTER	INFO	FORMAT	00836	00836-02	00836-01	00836.00836-01.mutect.filtered.02_00836-02
chmod: cannot access `/00836/Processed/NGS.2_7_2b.WES_MosaicChildP1TumorP2Normal_Merged/': No such file or directory
00387
Using column name '00387' for 00387.00387-hets.mutect.filtered.01.vcf.gz:00387
Using column name '00387-01' for 00387.00387-hets.mutect.filtered.01.vcf.gz:00387-01
Using column name '00387.00387-02.mutect.filtered.01_00387-01' for 00387.00387-02.mutect.filtered.01.vcf.gz:00387-01
Using column name '00387-02' for 00387.00387-02.mutect.filtered.01.vcf.gz:00387-02

VCFtools - v0.1.12a
(C) Adam Auton and Anthony Marcketta 2009

Parameters as interpreted:
	--vcf 00387.00387.mutect.filtered.hetsP2.vcf
	--extract-FORMAT-info GT
	--out merge

After filtering, kept 4 out of 4 Individuals
Outputting FORMAT information for GT
After filtering, kept 3525 out of a possible 3525 Sites
Run Time = 0.00 seconds
#CHROM	POS	ID	REF	ALT	QUAL	FILTER	INFO	FORMAT	00387	00387-01	00387.00387-02.mutect.filtered.01_00387-01	00387-02
chr4	79343111	rs78575519	G	A	.	PASS	AC=2;AN=6;DB;SF=0,1;SOMATIC;VT=SNP	GT:BQ:DP:FA:SS:AD	0/1:33:36:0.667:2:12,24	0:.:33:0.00:0:33,0	0:.:33:0.00:0:33,0	0/1:33:31:0.194:2:25,6 0/1
chmod: cannot access `/00387/Processed/NGS.2_7_2b.WES_MosaicChildP2TumorP1Normal_Merged/': No such file or directory
00387
Using column name '00387' for 00387.00387-hets.mutect.filtered.02.vcf.gz:00387
Using column name '00387-02' for 00387.00387-hets.mutect.filtered.02.vcf.gz:00387-02
Using column name '00387-01' for 00387.00387-01.mutect.filtered.02.vcf.gz:00387-01
Using column name '00387.00387-01.mutect.filtered.02_00387-02' for 00387.00387-01.mutect.filtered.02.vcf.gz:00387-02

VCFtools - v0.1.12a
(C) Adam Auton and Anthony Marcketta 2009

Parameters as interpreted:
	--vcf 00387.00387.mutect.filtered.hetsP1.vcf
	--extract-FORMAT-info GT
	--out merge

After filtering, kept 4 out of 4 Individuals
Outputting FORMAT information for GT
After filtering, kept 3779 out of a possible 3779 Sites
Run Time = 0.00 seconds
#CHROM	POS	ID	REF	ALT	QUAL	FILTER	INFO	FORMAT	00387	00387-02	00387-01	00387.00387-01.mutect.filtered.02_00387-02
chmod: cannot access `/00387/Processed/NGS.2_7_2b.WES_MosaicChildP1TumorP2Normal_Merged/': No such file or directory
01100
Using column name '01100' for 01100.01100-hets.mutect.filtered.01.vcf.gz:01100
Using column name '01100-01' for 01100.01100-hets.mutect.filtered.01.vcf.gz:01100-01
Using column name '01100.01100-02.mutect.filtered.01_01100-01' for 01100.01100-02.mutect.filtered.01.vcf.gz:01100-01
Using column name '01100-02' for 01100.01100-02.mutect.filtered.01.vcf.gz:01100-02

VCFtools - v0.1.12a
(C) Adam Auton and Anthony Marcketta 2009

Parameters as interpreted:
	--vcf 01100.01100.mutect.filtered.hetsP2.vcf
	--extract-FORMAT-info GT
	--out merge

After filtering, kept 4 out of 4 Individuals
Outputting FORMAT information for GT
After filtering, kept 3182 out of a possible 3182 Sites
Run Time = 0.00 seconds
#CHROM	POS	ID	REF	ALT	QUAL	FILTER	INFO	FORMAT	01100	01100-01	01100.01100-02.mutect.filtered.01_01100-01	01100-02
chr14	107283150	rs35227799	G	T	.	PASS	AC=2;AN=6;DB;SF=0,1;SOMATIC;VT=SNP	GT:BQ:DP:FA:SS:AD	0/1:31:36:0.444:2:20,16	0:.:61:0.00:0:61,0	0:.:61:0.00:0:61,0	0/1:31:41:0.122:2:36,5 0/1
chr14	107283156	rs10133664	A	G	.	PASS	AC=2;AN=6;DB;SF=0,1;SOMATIC;VT=SNP	GT:BQ:DP:FA:SS:AD	0/1:32:38:0.447:2:21,17	0:.:62:0.00:0:62,0	0:.:62:0.00:0:62,0	0/1:35:42:0.143:2:36,6 0/1
chmod: cannot access `/01100/Processed/NGS.2_7_2b.WES_MosaicChildP2TumorP1Normal_Merged/': No such file or directory
01100
Using column name '01100' for 01100.01100-hets.mutect.filtered.02.vcf.gz:01100
Using column name '01100-02' for 01100.01100-hets.mutect.filtered.02.vcf.gz:01100-02
Using column name '01100-01' for 01100.01100-01.mutect.filtered.02.vcf.gz:01100-01
Using column name '01100.01100-01.mutect.filtered.02_01100-02' for 01100.01100-01.mutect.filtered.02.vcf.gz:01100-02

VCFtools - v0.1.12a
(C) Adam Auton and Anthony Marcketta 2009

Parameters as interpreted:
	--vcf 01100.01100.mutect.filtered.hetsP1.vcf
	--extract-FORMAT-info GT
	--out merge

After filtering, kept 4 out of 4 Individuals
Outputting FORMAT information for GT
After filtering, kept 3358 out of a possible 3358 Sites
Run Time = 0.00 seconds
#CHROM	POS	ID	REF	ALT	QUAL	FILTER	INFO	FORMAT	01100	01100-02	01100-01	01100.01100-01.mutect.filtered.02_01100-02
chmod: cannot access `/01100/Processed/NGS.2_7_2b.WES_MosaicChildP1TumorP2Normal_Merged/': No such file or directory
04378
Using column name '04378' for 04378.04378-hets.mutect.filtered.01.vcf.gz:04378
Using column name '04378-01' for 04378.04378-hets.mutect.filtered.01.vcf.gz:04378-01
Using column name '04378.04378-02.mutect.filtered.01_04378-01' for 04378.04378-02.mutect.filtered.01.vcf.gz:04378-01
Using column name '04378-02' for 04378.04378-02.mutect.filtered.01.vcf.gz:04378-02

VCFtools - v0.1.12a
(C) Adam Auton and Anthony Marcketta 2009

Parameters as interpreted:
	--vcf 04378.04378.mutect.filtered.hetsP2.vcf
	--extract-FORMAT-info GT
	--out merge

After filtering, kept 4 out of 4 Individuals
Outputting FORMAT information for GT
After filtering, kept 4049 out of a possible 4049 Sites
Run Time = 0.00 seconds
#CHROM	POS	ID	REF	ALT	QUAL	FILTER	INFO	FORMAT	04378	04378-01	04378.04378-02.mutect.filtered.01_04378-01	04378-02
chmod: cannot access `/04378/Processed/NGS.2_7_2b.WES_MosaicChildP2TumorP1Normal_Merged/': No such file or directory
04378
Using column name '04378' for 04378.04378-hets.mutect.filtered.02.vcf.gz:04378
Using column name '04378-02' for 04378.04378-hets.mutect.filtered.02.vcf.gz:04378-02
Using column name '04378-01' for 04378.04378-01.mutect.filtered.02.vcf.gz:04378-01
Using column name '04378.04378-01.mutect.filtered.02_04378-02' for 04378.04378-01.mutect.filtered.02.vcf.gz:04378-02

VCFtools - v0.1.12a
(C) Adam Auton and Anthony Marcketta 2009

Parameters as interpreted:
	--vcf 04378.04378.mutect.filtered.hetsP1.vcf
	--extract-FORMAT-info GT
	--out merge

After filtering, kept 4 out of 4 Individuals
Outputting FORMAT information for GT
After filtering, kept 3789 out of a possible 3789 Sites
Run Time = 0.00 seconds
#CHROM	POS	ID	REF	ALT	QUAL	FILTER	INFO	FORMAT	04378	04378-02	04378-01	04378.04378-01.mutect.filtered.02_04378-02
chmod: cannot access `/04378/Processed/NGS.2_7_2b.WES_MosaicChildP1TumorP2Normal_Merged/': No such file or directory
05093
Using column name '05093' for 05093.05093-hets.mutect.filtered.01.vcf.gz:05093
Using column name '05093-01' for 05093.05093-hets.mutect.filtered.01.vcf.gz:05093-01
Using column name '05093.05093-02.mutect.filtered.01_05093-01' for 05093.05093-02.mutect.filtered.01.vcf.gz:05093-01
Using column name '05093-02' for 05093.05093-02.mutect.filtered.01.vcf.gz:05093-02

VCFtools - v0.1.12a
(C) Adam Auton and Anthony Marcketta 2009

Parameters as interpreted:
	--vcf 05093.05093.mutect.filtered.hetsP2.vcf
	--extract-FORMAT-info GT
	--out merge

After filtering, kept 4 out of 4 Individuals
Outputting FORMAT information for GT
After filtering, kept 3581 out of a possible 3581 Sites
Run Time = 0.00 seconds
#CHROM	POS	ID	REF	ALT	QUAL	FILTER	INFO	FORMAT	05093	05093-01	05093.05093-02.mutect.filtered.01_05093-01	05093-02
chr9	18681821	rs13293151	A	G	.	PASS	AC=2;AN=6;DB;SF=0,1;SOMATIC;VT=SNP	GT:BQ:DP:FA:SS:AD	0/1:29:39:0.462:2:21,18	0:.:33:0.00:0:33,0	0:.:33:0.00:0:33,0	0/1:28:30:0.200:2:24,6 0/1
chmod: cannot access `/05093/Processed/NGS.2_7_2b.WES_MosaicChildP2TumorP1Normal_Merged/': No such file or directory
05093
Using column name '05093' for 05093.05093-hets.mutect.filtered.02.vcf.gz:05093
Using column name '05093-02' for 05093.05093-hets.mutect.filtered.02.vcf.gz:05093-02
Using column name '05093-01' for 05093.05093-01.mutect.filtered.02.vcf.gz:05093-01
Using column name '05093.05093-01.mutect.filtered.02_05093-02' for 05093.05093-01.mutect.filtered.02.vcf.gz:05093-02

VCFtools - v0.1.12a
(C) Adam Auton and Anthony Marcketta 2009

Parameters as interpreted:
	--vcf 05093.05093.mutect.filtered.hetsP1.vcf
	--extract-FORMAT-info GT
	--out merge

After filtering, kept 4 out of 4 Individuals
Outputting FORMAT information for GT
After filtering, kept 3313 out of a possible 3313 Sites
Run Time = 0.00 seconds
#CHROM	POS	ID	REF	ALT	QUAL	FILTER	INFO	FORMAT	05093	05093-02	05093-01	05093.05093-01.mutect.filtered.02_05093-02
chr19	5693638	rs140893513	G	A	.	PASS	AC=2;AN=6;DB;SF=0,1;SOMATIC;VT=SNP	GT:BQ:DP:FA:SS:AD	0/1:30:37:0.514:2:18,19	0:.:31:0.00:0:32,0	0/1:31:31:0.161:2:26,5	0:.:31:0.00:0:32,0 0/1
chmod: cannot access `/05093/Processed/NGS.2_7_2b.WES_MosaicChildP1TumorP2Normal_Merged/': No such file or directory
03686
Using column name '03686' for 03686.03686-hets.mutect.filtered.01.vcf.gz:03686
Using column name '03686-01' for 03686.03686-hets.mutect.filtered.01.vcf.gz:03686-01
Using column name '03686.03686-02.mutect.filtered.01_03686-01' for 03686.03686-02.mutect.filtered.01.vcf.gz:03686-01
Using column name '03686-02' for 03686.03686-02.mutect.filtered.01.vcf.gz:03686-02

VCFtools - v0.1.12a
(C) Adam Auton and Anthony Marcketta 2009

Parameters as interpreted:
	--vcf 03686.03686.mutect.filtered.hetsP2.vcf
	--extract-FORMAT-info GT
	--out merge

After filtering, kept 4 out of 4 Individuals
Outputting FORMAT information for GT
After filtering, kept 3911 out of a possible 3911 Sites
Run Time = 0.00 seconds
#CHROM	POS	ID	REF	ALT	QUAL	FILTER	INFO	FORMAT	03686	03686-01	03686.03686-02.mutect.filtered.01_03686-01	03686-02
chmod: cannot access `/03686/Processed/NGS.2_7_2b.WES_MosaicChildP2TumorP1Normal_Merged/': No such file or directory
03686
Using column name '03686' for 03686.03686-hets.mutect.filtered.02.vcf.gz:03686
Using column name '03686-02' for 03686.03686-hets.mutect.filtered.02.vcf.gz:03686-02
Using column name '03686-01' for 03686.03686-01.mutect.filtered.02.vcf.gz:03686-01
Using column name '03686.03686-01.mutect.filtered.02_03686-02' for 03686.03686-01.mutect.filtered.02.vcf.gz:03686-02

VCFtools - v0.1.12a
(C) Adam Auton and Anthony Marcketta 2009

Parameters as interpreted:
	--vcf 03686.03686.mutect.filtered.hetsP1.vcf
	--extract-FORMAT-info GT
	--out merge

After filtering, kept 4 out of 4 Individuals
Outputting FORMAT information for GT
After filtering, kept 3870 out of a possible 3870 Sites
Run Time = 0.00 seconds
#CHROM	POS	ID	REF	ALT	QUAL	FILTER	INFO	FORMAT	03686	03686-02	03686-01	03686.03686-01.mutect.filtered.02_03686-02
chmod: cannot access `/03686/Processed/NGS.2_7_2b.WES_MosaicChildP1TumorP2Normal_Merged/': No such file or directory
04986
Using column name '04986' for 04986.04986-hets.mutect.filtered.01.vcf.gz:04986
Using column name '04986-01' for 04986.04986-hets.mutect.filtered.01.vcf.gz:04986-01
Using column name '04986.04986-02.mutect.filtered.01_04986-01' for 04986.04986-02.mutect.filtered.01.vcf.gz:04986-01
Using column name '04986-02' for 04986.04986-02.mutect.filtered.01.vcf.gz:04986-02

VCFtools - v0.1.12a
(C) Adam Auton and Anthony Marcketta 2009

Parameters as interpreted:
	--vcf 04986.04986.mutect.filtered.hetsP2.vcf
	--extract-FORMAT-info GT
	--out merge

After filtering, kept 4 out of 4 Individuals
Outputting FORMAT information for GT
After filtering, kept 3785 out of a possible 3785 Sites
Run Time = 0.00 seconds
#CHROM	POS	ID	REF	ALT	QUAL	FILTER	INFO	FORMAT	04986	04986-01	04986.04986-02.mutect.filtered.01_04986-01	04986-02
chr15	43348679	rs78940367	C	T	.	PASS	AC=2;AN=6;DB;SF=0,1;SOMATIC;VT=SNP	GT:BQ:DP:FA:SS:AD	0/1:30:38:0.474:2:20,18	0:.:40:0.00:0:40,0	0:.:40:0.00:0:40,0	0/1:31:31:0.194:2:25,6 0/1
chmod: cannot access `/04986/Processed/NGS.2_7_2b.WES_MosaicChildP2TumorP1Normal_Merged/': No such file or directory
04986
Using column name '04986' for 04986.04986-hets.mutect.filtered.02.vcf.gz:04986
Using column name '04986-02' for 04986.04986-hets.mutect.filtered.02.vcf.gz:04986-02
Using column name '04986-01' for 04986.04986-01.mutect.filtered.02.vcf.gz:04986-01
Using column name '04986.04986-01.mutect.filtered.02_04986-02' for 04986.04986-01.mutect.filtered.02.vcf.gz:04986-02

VCFtools - v0.1.12a
(C) Adam Auton and Anthony Marcketta 2009

Parameters as interpreted:
	--vcf 04986.04986.mutect.filtered.hetsP1.vcf
	--extract-FORMAT-info GT
	--out merge

After filtering, kept 4 out of 4 Individuals
Outputting FORMAT information for GT
After filtering, kept 4436 out of a possible 4436 Sites
Run Time = 0.00 seconds
#CHROM	POS	ID	REF	ALT	QUAL	FILTER	INFO	FORMAT	04986	04986-02	04986-01	04986.04986-01.mutect.filtered.02_04986-02
chr3	9959713	rs4686383	C	T	.	PASS	AC=2;AN=6;DB;SF=0,1;SOMATIC;VT=SNP	GT:BQ:DP:FA:SS:AD	0/1:32:46:0.413:2:27,19	0:.:30:0.00:0:30,0	0/1:32:35:0.171:2:29,6	0:.:30:0.00:0:30,0 0/1
chmod: cannot access `/04986/Processed/NGS.2_7_2b.WES_MosaicChildP1TumorP2Normal_Merged/': No such file or directory
04821
Using column name '04821' for 04821.04821-hets.mutect.filtered.01.vcf.gz:04821
Using column name '04821-01' for 04821.04821-hets.mutect.filtered.01.vcf.gz:04821-01
Using column name '04821.04821-02.mutect.filtered.01_04821-01' for 04821.04821-02.mutect.filtered.01.vcf.gz:04821-01
Using column name '04821-02' for 04821.04821-02.mutect.filtered.01.vcf.gz:04821-02

VCFtools - v0.1.12a
(C) Adam Auton and Anthony Marcketta 2009

Parameters as interpreted:
	--vcf 04821.04821.mutect.filtered.hetsP2.vcf
	--extract-FORMAT-info GT
	--out merge

After filtering, kept 4 out of 4 Individuals
Outputting FORMAT information for GT
After filtering, kept 3448 out of a possible 3448 Sites
Run Time = 0.00 seconds
#CHROM	POS	ID	REF	ALT	QUAL	FILTER	INFO	FORMAT	04821	04821-01	04821.04821-02.mutect.filtered.01_04821-01	04821-02
chmod: cannot access `/04821/Processed/NGS.2_7_2b.WES_MosaicChildP2TumorP1Normal_Merged/': No such file or directory
04821
Using column name '04821' for 04821.04821-hets.mutect.filtered.02.vcf.gz:04821
Using column name '04821-02' for 04821.04821-hets.mutect.filtered.02.vcf.gz:04821-02
Using column name '04821-01' for 04821.04821-01.mutect.filtered.02.vcf.gz:04821-01
Using column name '04821.04821-01.mutect.filtered.02_04821-02' for 04821.04821-01.mutect.filtered.02.vcf.gz:04821-02

VCFtools - v0.1.12a
(C) Adam Auton and Anthony Marcketta 2009

Parameters as interpreted:
	--vcf 04821.04821.mutect.filtered.hetsP1.vcf
	--extract-FORMAT-info GT
	--out merge

After filtering, kept 4 out of 4 Individuals
Outputting FORMAT information for GT
After filtering, kept 3261 out of a possible 3261 Sites
Run Time = 0.00 seconds
#CHROM	POS	ID	REF	ALT	QUAL	FILTER	INFO	FORMAT	04821	04821-02	04821-01	04821.04821-01.mutect.filtered.02_04821-02
chr10	85944485	rs144656005	G	A	.	PASS	AC=2;AN=6;DB;SF=0,1;SOMATIC;VT=SNP	GT:BQ:DP:FA:SS:AD	0/1:30:39:0.436:2:22,17	0:.:32:0.00:0:32,0	0/1:27:30:0.167:2:25,5	0:.:32:0.00:0:32,0 0/1
chmod: cannot access `/04821/Processed/NGS.2_7_2b.WES_MosaicChildP1TumorP2Normal_Merged/': No such file or directory
03450
Using column name '03450' for 03450.03450-hets.mutect.filtered.01.vcf.gz:03450
Using column name '03450-01' for 03450.03450-hets.mutect.filtered.01.vcf.gz:03450-01
Using column name '03450.03450-02.mutect.filtered.01_03450-01' for 03450.03450-02.mutect.filtered.01.vcf.gz:03450-01
Using column name '03450-02' for 03450.03450-02.mutect.filtered.01.vcf.gz:03450-02

VCFtools - v0.1.12a
(C) Adam Auton and Anthony Marcketta 2009

Parameters as interpreted:
	--vcf 03450.03450.mutect.filtered.hetsP2.vcf
	--extract-FORMAT-info GT
	--out merge

After filtering, kept 4 out of 4 Individuals
Outputting FORMAT information for GT
After filtering, kept 2833 out of a possible 2833 Sites
Run Time = 0.00 seconds
#CHROM	POS	ID	REF	ALT	QUAL	FILTER	INFO	FORMAT	03450	03450-01	03450.03450-02.mutect.filtered.01_03450-01	03450-02
chmod: cannot access `/03450/Processed/NGS.2_7_2b.WES_MosaicChildP2TumorP1Normal_Merged/': No such file or directory
03450
Using column name '03450' for 03450.03450-hets.mutect.filtered.02.vcf.gz:03450
Using column name '03450-02' for 03450.03450-hets.mutect.filtered.02.vcf.gz:03450-02
Using column name '03450-01' for 03450.03450-01.mutect.filtered.02.vcf.gz:03450-01
Using column name '03450.03450-01.mutect.filtered.02_03450-02' for 03450.03450-01.mutect.filtered.02.vcf.gz:03450-02

VCFtools - v0.1.12a
(C) Adam Auton and Anthony Marcketta 2009

Parameters as interpreted:
	--vcf 03450.03450.mutect.filtered.hetsP1.vcf
	--extract-FORMAT-info GT
	--out merge

After filtering, kept 4 out of 4 Individuals
Outputting FORMAT information for GT
After filtering, kept 2470 out of a possible 2470 Sites
Run Time = 0.00 seconds
#CHROM	POS	ID	REF	ALT	QUAL	FILTER	INFO	FORMAT	03450	03450-02	03450-01	03450.03450-01.mutect.filtered.02_03450-02
chmod: cannot access `/03450/Processed/NGS.2_7_2b.WES_MosaicChildP1TumorP2Normal_Merged/': No such file or directory
04203
Using column name '04203' for 04203.04203-hets.mutect.filtered.01.vcf.gz:04203
Using column name '04203-01' for 04203.04203-hets.mutect.filtered.01.vcf.gz:04203-01
Using column name '04203.04203-02.mutect.filtered.01_04203-01' for 04203.04203-02.mutect.filtered.01.vcf.gz:04203-01
Using column name '04203-02' for 04203.04203-02.mutect.filtered.01.vcf.gz:04203-02

VCFtools - v0.1.12a
(C) Adam Auton and Anthony Marcketta 2009

Parameters as interpreted:
	--vcf 04203.04203.mutect.filtered.hetsP2.vcf
	--extract-FORMAT-info GT
	--out merge

After filtering, kept 4 out of 4 Individuals
Outputting FORMAT information for GT
After filtering, kept 3628 out of a possible 3628 Sites
Run Time = 0.00 seconds
#CHROM	POS	ID	REF	ALT	QUAL	FILTER	INFO	FORMAT	04203	04203-01	04203.04203-02.mutect.filtered.01_04203-01	04203-02
chmod: cannot access `/04203/Processed/NGS.2_7_2b.WES_MosaicChildP2TumorP1Normal_Merged/': No such file or directory
04203
Using column name '04203' for 04203.04203-hets.mutect.filtered.02.vcf.gz:04203
Using column name '04203-02' for 04203.04203-hets.mutect.filtered.02.vcf.gz:04203-02
Using column name '04203-01' for 04203.04203-01.mutect.filtered.02.vcf.gz:04203-01
Using column name '04203.04203-01.mutect.filtered.02_04203-02' for 04203.04203-01.mutect.filtered.02.vcf.gz:04203-02

VCFtools - v0.1.12a
(C) Adam Auton and Anthony Marcketta 2009

Parameters as interpreted:
	--vcf 04203.04203.mutect.filtered.hetsP1.vcf
	--extract-FORMAT-info GT
	--out merge

After filtering, kept 4 out of 4 Individuals
Outputting FORMAT information for GT
After filtering, kept 3741 out of a possible 3741 Sites
Run Time = 0.00 seconds
#CHROM	POS	ID	REF	ALT	QUAL	FILTER	INFO	FORMAT	04203	04203-02	04203-01	04203.04203-01.mutect.filtered.02_04203-02
chr7	5949830	rs11771500	C	T	.	PASS	AC=2;AN=6;DB;SF=0,1;SOMATIC;VT=SNP	GT:BQ:DP:FA:SS:AD	0/1:32:39:0.487:2:20,19	0:.:39:0.00:0:40,0	0/1:32:30:0.200:2:24,6	0:.:39:0.00:0:40,0 0/1
chmod: cannot access `/04203/Processed/NGS.2_7_2b.WES_MosaicChildP1TumorP2Normal_Merged/': No such file or directory
06101
Using column name '06101' for 06101.06101-hets.mutect.filtered.01.vcf.gz:06101
Using column name '06101-01' for 06101.06101-hets.mutect.filtered.01.vcf.gz:06101-01
Using column name '06101.06101-02.mutect.filtered.01_06101-01' for 06101.06101-02.mutect.filtered.01.vcf.gz:06101-01
Using column name '06101-02' for 06101.06101-02.mutect.filtered.01.vcf.gz:06101-02

VCFtools - v0.1.12a
(C) Adam Auton and Anthony Marcketta 2009

Parameters as interpreted:
	--vcf 06101.06101.mutect.filtered.hetsP2.vcf
	--extract-FORMAT-info GT
	--out merge

After filtering, kept 4 out of 4 Individuals
Outputting FORMAT information for GT
After filtering, kept 4222 out of a possible 4222 Sites
Run Time = 1.00 seconds
#CHROM	POS	ID	REF	ALT	QUAL	FILTER	INFO	FORMAT	06101	06101-01	06101.06101-02.mutect.filtered.01_06101-01	06101-02
chr19	54754946	rs146755009	G	A	.	PASS	AC=2;AN=6;DB;SF=0,1;SOMATIC;VT=SNP	GT:BQ:DP:FA:SS:AD	0/1:31:36:0.528:2:17,19	0:.:53:0.00:0:58,0	0:.:53:0.00:0:58,0	0/1:29:31:0.161:2:26,5 0/1
chmod: cannot access `/06101/Processed/NGS.2_7_2b.WES_MosaicChildP2TumorP1Normal_Merged/': No such file or directory
06101
Using column name '06101' for 06101.06101-hets.mutect.filtered.02.vcf.gz:06101
Using column name '06101-02' for 06101.06101-hets.mutect.filtered.02.vcf.gz:06101-02
Using column name '06101-01' for 06101.06101-01.mutect.filtered.02.vcf.gz:06101-01
Using column name '06101.06101-01.mutect.filtered.02_06101-02' for 06101.06101-01.mutect.filtered.02.vcf.gz:06101-02

VCFtools - v0.1.12a
(C) Adam Auton and Anthony Marcketta 2009

Parameters as interpreted:
	--vcf 06101.06101.mutect.filtered.hetsP1.vcf
	--extract-FORMAT-info GT
	--out merge

After filtering, kept 4 out of 4 Individuals
Outputting FORMAT information for GT
After filtering, kept 4266 out of a possible 4266 Sites
Run Time = 0.00 seconds
#CHROM	POS	ID	REF	ALT	QUAL	FILTER	INFO	FORMAT	06101	06101-02	06101-01	06101.06101-01.mutect.filtered.02_06101-02
chr1	169580717	rs3917731	T	C	.	PASS	AC=2;AN=6;DB;SF=0,1;SOMATIC;VT=SNP	GT:BQ:DP:FA:SS:AD	0/1:32:30:0.500:2:15,15	0:.:34:0.00:0:34,0	0/1:32:34:0.176:2:28,6	0:.:34:0.00:0:34,0 0/1
chr12	8393268	rs11044216	A	G	.	PASS	AC=2;AN=6;DB;SF=0,1;SOMATIC;VT=SNP	GT:BQ:DP:FA:SS:AD	0/1:33:30:0.433:2:17,13	0:.:41:0.00:0:42,0	0/1:30:32:0.156:2:27,5	0:.:41:0.00:0:42,0 0/1
chmod: cannot access `/06101/Processed/NGS.2_7_2b.WES_MosaicChildP1TumorP2Normal_Merged/': No such file or directory
04192
Using column name '04192' for 04192.04192-hets.mutect.filtered.01.vcf.gz:04192
Using column name '04192-01' for 04192.04192-hets.mutect.filtered.01.vcf.gz:04192-01
Using column name '04192.04192-02.mutect.filtered.01_04192-01' for 04192.04192-02.mutect.filtered.01.vcf.gz:04192-01
Using column name '04192-02' for 04192.04192-02.mutect.filtered.01.vcf.gz:04192-02

VCFtools - v0.1.12a
(C) Adam Auton and Anthony Marcketta 2009

Parameters as interpreted:
	--vcf 04192.04192.mutect.filtered.hetsP2.vcf
	--extract-FORMAT-info GT
	--out merge

After filtering, kept 4 out of 4 Individuals
Outputting FORMAT information for GT
After filtering, kept 2881 out of a possible 2881 Sites
Run Time = 0.00 seconds
#CHROM	POS	ID	REF	ALT	QUAL	FILTER	INFO	FORMAT	04192	04192-01	04192.04192-02.mutect.filtered.01_04192-01	04192-02
chmod: cannot access `/04192/Processed/NGS.2_7_2b.WES_MosaicChildP2TumorP1Normal_Merged/': No such file or directory
04192
Using column name '04192' for 04192.04192-hets.mutect.filtered.02.vcf.gz:04192
Using column name '04192-02' for 04192.04192-hets.mutect.filtered.02.vcf.gz:04192-02
Using column name '04192-01' for 04192.04192-01.mutect.filtered.02.vcf.gz:04192-01
Using column name '04192.04192-01.mutect.filtered.02_04192-02' for 04192.04192-01.mutect.filtered.02.vcf.gz:04192-02

VCFtools - v0.1.12a
(C) Adam Auton and Anthony Marcketta 2009

Parameters as interpreted:
	--vcf 04192.04192.mutect.filtered.hetsP1.vcf
	--extract-FORMAT-info GT
	--out merge

After filtering, kept 4 out of 4 Individuals
Outputting FORMAT information for GT
After filtering, kept 2142 out of a possible 2142 Sites
Run Time = 0.00 seconds
#CHROM	POS	ID	REF	ALT	QUAL	FILTER	INFO	FORMAT	04192	04192-02	04192-01	04192.04192-01.mutect.filtered.02_04192-02
chmod: cannot access `/04192/Processed/NGS.2_7_2b.WES_MosaicChildP1TumorP2Normal_Merged/': No such file or directory
01435
Using column name '01435' for 01435.01435-hets.mutect.filtered.01.vcf.gz:01435
Using column name '01435-01' for 01435.01435-hets.mutect.filtered.01.vcf.gz:01435-01
Using column name '01435.01435-02.mutect.filtered.01_01435-01' for 01435.01435-02.mutect.filtered.01.vcf.gz:01435-01
Using column name '01435-02' for 01435.01435-02.mutect.filtered.01.vcf.gz:01435-02

VCFtools - v0.1.12a
(C) Adam Auton and Anthony Marcketta 2009

Parameters as interpreted:
	--vcf 01435.01435.mutect.filtered.hetsP2.vcf
	--extract-FORMAT-info GT
	--out merge

After filtering, kept 4 out of 4 Individuals
Outputting FORMAT information for GT
After filtering, kept 4229 out of a possible 4229 Sites
Run Time = 0.00 seconds
#CHROM	POS	ID	REF	ALT	QUAL	FILTER	INFO	FORMAT	01435	01435-01	01435.01435-02.mutect.filtered.01_01435-01	01435-02
chmod: cannot access `/01435/Processed/NGS.2_7_2b.WES_MosaicChildP2TumorP1Normal_Merged/': No such file or directory
01435
Using column name '01435' for 01435.01435-hets.mutect.filtered.02.vcf.gz:01435
Using column name '01435-02' for 01435.01435-hets.mutect.filtered.02.vcf.gz:01435-02
Using column name '01435-01' for 01435.01435-01.mutect.filtered.02.vcf.gz:01435-01
Using column name '01435.01435-01.mutect.filtered.02_01435-02' for 01435.01435-01.mutect.filtered.02.vcf.gz:01435-02

VCFtools - v0.1.12a
(C) Adam Auton and Anthony Marcketta 2009

Parameters as interpreted:
	--vcf 01435.01435.mutect.filtered.hetsP1.vcf
	--extract-FORMAT-info GT
	--out merge

After filtering, kept 4 out of 4 Individuals
Outputting FORMAT information for GT
After filtering, kept 4062 out of a possible 4062 Sites
Run Time = 0.00 seconds
#CHROM	POS	ID	REF	ALT	QUAL	FILTER	INFO	FORMAT	01435	01435-02	01435-01	01435.01435-01.mutect.filtered.02_01435-02
chr12	133257887	rs5744733	C	T	.	PASS	AC=2;AN=6;DB;SF=0,1;SOMATIC;VT=SNP	GT:BQ:DP:FA:SS:AD	0/1:32:41:0.439:2:23,18	0:.:41:0.00:0:41,0	0/1:32:30:0.167:2:25,5	0:.:41:0.00:0:41,0 0/1
chmod: cannot access `/01435/Processed/NGS.2_7_2b.WES_MosaicChildP1TumorP2Normal_Merged/': No such file or directory
04567
Using column name '04567' for 04567.04567-hets.mutect.filtered.01.vcf.gz:04567
Using column name '04567-01' for 04567.04567-hets.mutect.filtered.01.vcf.gz:04567-01
Using column name '04567.04567-02.mutect.filtered.01_04567-01' for 04567.04567-02.mutect.filtered.01.vcf.gz:04567-01
Using column name '04567-02' for 04567.04567-02.mutect.filtered.01.vcf.gz:04567-02

VCFtools - v0.1.12a
(C) Adam Auton and Anthony Marcketta 2009

Parameters as interpreted:
	--vcf 04567.04567.mutect.filtered.hetsP2.vcf
	--extract-FORMAT-info GT
	--out merge

After filtering, kept 4 out of 4 Individuals
Outputting FORMAT information for GT
After filtering, kept 3350 out of a possible 3350 Sites
Run Time = 1.00 seconds
#CHROM	POS	ID	REF	ALT	QUAL	FILTER	INFO	FORMAT	04567	04567-01	04567.04567-02.mutect.filtered.01_04567-01	04567-02
chmod: cannot access `/04567/Processed/NGS.2_7_2b.WES_MosaicChildP2TumorP1Normal_Merged/': No such file or directory
04567
Using column name '04567' for 04567.04567-hets.mutect.filtered.02.vcf.gz:04567
Using column name '04567-02' for 04567.04567-hets.mutect.filtered.02.vcf.gz:04567-02
Using column name '04567-01' for 04567.04567-01.mutect.filtered.02.vcf.gz:04567-01
Using column name '04567.04567-01.mutect.filtered.02_04567-02' for 04567.04567-01.mutect.filtered.02.vcf.gz:04567-02

VCFtools - v0.1.12a
(C) Adam Auton and Anthony Marcketta 2009

Parameters as interpreted:
	--vcf 04567.04567.mutect.filtered.hetsP1.vcf
	--extract-FORMAT-info GT
	--out merge

After filtering, kept 4 out of 4 Individuals
Outputting FORMAT information for GT
After filtering, kept 3999 out of a possible 3999 Sites
Run Time = 0.00 seconds
#CHROM	POS	ID	REF	ALT	QUAL	FILTER	INFO	FORMAT	04567	04567-02	04567-01	04567.04567-01.mutect.filtered.02_04567-02
chmod: cannot access `/04567/Processed/NGS.2_7_2b.WES_MosaicChildP1TumorP2Normal_Merged/': No such file or directory
03826
Using column name '03826' for 03826.03826-hets.mutect.filtered.01.vcf.gz:03826
Using column name '03826-01' for 03826.03826-hets.mutect.filtered.01.vcf.gz:03826-01
Using column name '03826.03826-02.mutect.filtered.01_03826-01' for 03826.03826-02.mutect.filtered.01.vcf.gz:03826-01
Using column name '03826-02' for 03826.03826-02.mutect.filtered.01.vcf.gz:03826-02

VCFtools - v0.1.12a
(C) Adam Auton and Anthony Marcketta 2009

Parameters as interpreted:
	--vcf 03826.03826.mutect.filtered.hetsP2.vcf
	--extract-FORMAT-info GT
	--out merge

After filtering, kept 4 out of 4 Individuals
Outputting FORMAT information for GT
After filtering, kept 3767 out of a possible 3767 Sites
Run Time = 1.00 seconds
#CHROM	POS	ID	REF	ALT	QUAL	FILTER	INFO	FORMAT	03826	03826-01	03826.03826-02.mutect.filtered.01_03826-01	03826-02
chr11	8016730	rs1105984	T	C	.	PASS	AC=2;AN=6;DB;SF=0,1;SOMATIC;VT=SNP	GT:BQ:DP:FA:SS:AD	0/1:33:32:0.500:2:16,16	0:.:40:0.00:0:40,0	0:.:40:0.00:0:40,0	0/1:34:35:0.171:2:29,6 0/1
chmod: cannot access `/03826/Processed/NGS.2_7_2b.WES_MosaicChildP2TumorP1Normal_Merged/': No such file or directory
03826
Using column name '03826' for 03826.03826-hets.mutect.filtered.02.vcf.gz:03826
Using column name '03826-02' for 03826.03826-hets.mutect.filtered.02.vcf.gz:03826-02
Using column name '03826-01' for 03826.03826-01.mutect.filtered.02.vcf.gz:03826-01
Using column name '03826.03826-01.mutect.filtered.02_03826-02' for 03826.03826-01.mutect.filtered.02.vcf.gz:03826-02

VCFtools - v0.1.12a
(C) Adam Auton and Anthony Marcketta 2009

Parameters as interpreted:
	--vcf 03826.03826.mutect.filtered.hetsP1.vcf
	--extract-FORMAT-info GT
	--out merge

After filtering, kept 4 out of 4 Individuals
Outputting FORMAT information for GT
After filtering, kept 3479 out of a possible 3479 Sites
Run Time = 0.00 seconds
#CHROM	POS	ID	REF	ALT	QUAL	FILTER	INFO	FORMAT	03826	03826-02	03826-01	03826.03826-01.mutect.filtered.02_03826-02
chr16	16302586	rs72657698	T	C	.	PASS	AC=2;AN=6;DB;SF=0,1;SOMATIC;VT=SNP	GT:BQ:DP:FA:SS:AD	0/1:33:30:0.400:2:18,12	0:.:39:0.00:0:39,0	0/1:34:34:0.176:2:28,6	0:.:39:0.00:0:39,0 0/1
chmod: cannot access `/03826/Processed/NGS.2_7_2b.WES_MosaicChildP1TumorP2Normal_Merged/': No such file or directory
04113
Using column name '04113' for 04113.04113-hets.mutect.filtered.01.vcf.gz:04113
Using column name '04113-01' for 04113.04113-hets.mutect.filtered.01.vcf.gz:04113-01
Using column name '04113.04113-02.mutect.filtered.01_04113-01' for 04113.04113-02.mutect.filtered.01.vcf.gz:04113-01
Using column name '04113-02' for 04113.04113-02.mutect.filtered.01.vcf.gz:04113-02

VCFtools - v0.1.12a
(C) Adam Auton and Anthony Marcketta 2009

Parameters as interpreted:
	--vcf 04113.04113.mutect.filtered.hetsP2.vcf
	--extract-FORMAT-info GT
	--out merge

After filtering, kept 4 out of 4 Individuals
Outputting FORMAT information for GT
After filtering, kept 3850 out of a possible 3850 Sites
Run Time = 0.00 seconds
#CHROM	POS	ID	REF	ALT	QUAL	FILTER	INFO	FORMAT	04113	04113-01	04113.04113-02.mutect.filtered.01_04113-01	04113-02
chmod: cannot access `/04113/Processed/NGS.2_7_2b.WES_MosaicChildP2TumorP1Normal_Merged/': No such file or directory
04113
Using column name '04113' for 04113.04113-hets.mutect.filtered.02.vcf.gz:04113
Using column name '04113-02' for 04113.04113-hets.mutect.filtered.02.vcf.gz:04113-02
Using column name '04113-01' for 04113.04113-01.mutect.filtered.02.vcf.gz:04113-01
Using column name '04113.04113-01.mutect.filtered.02_04113-02' for 04113.04113-01.mutect.filtered.02.vcf.gz:04113-02

VCFtools - v0.1.12a
(C) Adam Auton and Anthony Marcketta 2009

Parameters as interpreted:
	--vcf 04113.04113.mutect.filtered.hetsP1.vcf
	--extract-FORMAT-info GT
	--out merge

After filtering, kept 4 out of 4 Individuals
Outputting FORMAT information for GT
After filtering, kept 3259 out of a possible 3259 Sites
Run Time = 0.00 seconds
#CHROM	POS	ID	REF	ALT	QUAL	FILTER	INFO	FORMAT	04113	04113-02	04113-01	04113.04113-01.mutect.filtered.02_04113-02
chmod: cannot access `/04113/Processed/NGS.2_7_2b.WES_MosaicChildP1TumorP2Normal_Merged/': No such file or directory
03737
Using column name '03737' for 03737.03737-hets.mutect.filtered.01.vcf.gz:03737
Using column name '03737-01' for 03737.03737-hets.mutect.filtered.01.vcf.gz:03737-01
Using column name '03737.03737-02.mutect.filtered.01_03737-01' for 03737.03737-02.mutect.filtered.01.vcf.gz:03737-01
Using column name '03737-02' for 03737.03737-02.mutect.filtered.01.vcf.gz:03737-02

VCFtools - v0.1.12a
(C) Adam Auton and Anthony Marcketta 2009

Parameters as interpreted:
	--vcf 03737.03737.mutect.filtered.hetsP2.vcf
	--extract-FORMAT-info GT
	--out merge

After filtering, kept 4 out of 4 Individuals
Outputting FORMAT information for GT
After filtering, kept 2867 out of a possible 2867 Sites
Run Time = 0.00 seconds
#CHROM	POS	ID	REF	ALT	QUAL	FILTER	INFO	FORMAT	03737	03737-01	03737.03737-02.mutect.filtered.01_03737-01	03737-02
chmod: cannot access `/03737/Processed/NGS.2_7_2b.WES_MosaicChildP2TumorP1Normal_Merged/': No such file or directory
03737
Using column name '03737' for 03737.03737-hets.mutect.filtered.02.vcf.gz:03737
Using column name '03737-02' for 03737.03737-hets.mutect.filtered.02.vcf.gz:03737-02
Using column name '03737-01' for 03737.03737-01.mutect.filtered.02.vcf.gz:03737-01
Using column name '03737.03737-01.mutect.filtered.02_03737-02' for 03737.03737-01.mutect.filtered.02.vcf.gz:03737-02

VCFtools - v0.1.12a
(C) Adam Auton and Anthony Marcketta 2009

Parameters as interpreted:
	--vcf 03737.03737.mutect.filtered.hetsP1.vcf
	--extract-FORMAT-info GT
	--out merge

After filtering, kept 4 out of 4 Individuals
Outputting FORMAT information for GT
After filtering, kept 3351 out of a possible 3351 Sites
Run Time = 0.00 seconds
#CHROM	POS	ID	REF	ALT	QUAL	FILTER	INFO	FORMAT	03737	03737-02	03737-01	03737.03737-01.mutect.filtered.02_03737-02
chmod: cannot access `/03737/Processed/NGS.2_7_2b.WES_MosaicChildP1TumorP2Normal_Merged/': No such file or directory
04554
Using column name '04554' for 04554.04554-hets.mutect.filtered.01.vcf.gz:04554
Using column name '04554-01' for 04554.04554-hets.mutect.filtered.01.vcf.gz:04554-01
Using column name '04554.04554-02.mutect.filtered.01_04554-01' for 04554.04554-02.mutect.filtered.01.vcf.gz:04554-01
Using column name '04554-02' for 04554.04554-02.mutect.filtered.01.vcf.gz:04554-02

VCFtools - v0.1.12a
(C) Adam Auton and Anthony Marcketta 2009

Parameters as interpreted:
	--vcf 04554.04554.mutect.filtered.hetsP2.vcf
	--extract-FORMAT-info GT
	--out merge

After filtering, kept 4 out of 4 Individuals
Outputting FORMAT information for GT
After filtering, kept 3191 out of a possible 3191 Sites
Run Time = 0.00 seconds
#CHROM	POS	ID	REF	ALT	QUAL	FILTER	INFO	FORMAT	04554	04554-01	04554.04554-02.mutect.filtered.01_04554-01	04554-02
chmod: cannot access `/04554/Processed/NGS.2_7_2b.WES_MosaicChildP2TumorP1Normal_Merged/': No such file or directory
04554
Using column name '04554' for 04554.04554-hets.mutect.filtered.02.vcf.gz:04554
Using column name '04554-02' for 04554.04554-hets.mutect.filtered.02.vcf.gz:04554-02
Using column name '04554-01' for 04554.04554-01.mutect.filtered.02.vcf.gz:04554-01
Using column name '04554.04554-01.mutect.filtered.02_04554-02' for 04554.04554-01.mutect.filtered.02.vcf.gz:04554-02

VCFtools - v0.1.12a
(C) Adam Auton and Anthony Marcketta 2009

Parameters as interpreted:
	--vcf 04554.04554.mutect.filtered.hetsP1.vcf
	--extract-FORMAT-info GT
	--out merge

After filtering, kept 4 out of 4 Individuals
Outputting FORMAT information for GT
After filtering, kept 3309 out of a possible 3309 Sites
Run Time = 0.00 seconds
#CHROM	POS	ID	REF	ALT	QUAL	FILTER	INFO	FORMAT	04554	04554-02	04554-01	04554.04554-01.mutect.filtered.02_04554-02
chr12	6134715	rs73051263	G	A	.	PASS	AC=2;AN=6;DB;SF=0,1;SOMATIC;VT=SNP	GT:BQ:DP:FA:SS:AD	0/1:31:37:0.459:2:20,17	0:.:49:0.00:0:49,0	0/1:33:31:0.194:2:25,6	0:.:49:0.00:0:49,0 0/1
chmod: cannot access `/04554/Processed/NGS.2_7_2b.WES_MosaicChildP1TumorP2Normal_Merged/': No such file or directory
04955
Using column name '04955' for 04955.04955-hets.mutect.filtered.01.vcf.gz:04955
Using column name '04955-01' for 04955.04955-hets.mutect.filtered.01.vcf.gz:04955-01
Using column name '04955.04955-02.mutect.filtered.01_04955-01' for 04955.04955-02.mutect.filtered.01.vcf.gz:04955-01
Using column name '04955-02' for 04955.04955-02.mutect.filtered.01.vcf.gz:04955-02

VCFtools - v0.1.12a
(C) Adam Auton and Anthony Marcketta 2009

Parameters as interpreted:
	--vcf 04955.04955.mutect.filtered.hetsP2.vcf
	--extract-FORMAT-info GT
	--out merge

After filtering, kept 4 out of 4 Individuals
Outputting FORMAT information for GT
After filtering, kept 3345 out of a possible 3345 Sites
Run Time = 0.00 seconds
#CHROM	POS	ID	REF	ALT	QUAL	FILTER	INFO	FORMAT	04955	04955-01	04955.04955-02.mutect.filtered.01_04955-01	04955-02
chmod: cannot access `/04955/Processed/NGS.2_7_2b.WES_MosaicChildP2TumorP1Normal_Merged/': No such file or directory
04955
Using column name '04955' for 04955.04955-hets.mutect.filtered.02.vcf.gz:04955
Using column name '04955-02' for 04955.04955-hets.mutect.filtered.02.vcf.gz:04955-02
Using column name '04955-01' for 04955.04955-01.mutect.filtered.02.vcf.gz:04955-01
Using column name '04955.04955-01.mutect.filtered.02_04955-02' for 04955.04955-01.mutect.filtered.02.vcf.gz:04955-02

VCFtools - v0.1.12a
(C) Adam Auton and Anthony Marcketta 2009

Parameters as interpreted:
	--vcf 04955.04955.mutect.filtered.hetsP1.vcf
	--extract-FORMAT-info GT
	--out merge

After filtering, kept 4 out of 4 Individuals
Outputting FORMAT information for GT
After filtering, kept 3542 out of a possible 3542 Sites
Run Time = 0.00 seconds
#CHROM	POS	ID	REF	ALT	QUAL	FILTER	INFO	FORMAT	04955	04955-02	04955-01	04955.04955-01.mutect.filtered.02_04955-02
chmod: cannot access `/04955/Processed/NGS.2_7_2b.WES_MosaicChildP1TumorP2Normal_Merged/': No such file or directory
04406
Using column name '04406' for 04406.04406-hets.mutect.filtered.01.vcf.gz:04406
Using column name '04406-01' for 04406.04406-hets.mutect.filtered.01.vcf.gz:04406-01
Using column name '04406.04406-02.mutect.filtered.01_04406-01' for 04406.04406-02.mutect.filtered.01.vcf.gz:04406-01
Using column name '04406-02' for 04406.04406-02.mutect.filtered.01.vcf.gz:04406-02

VCFtools - v0.1.12a
(C) Adam Auton and Anthony Marcketta 2009

Parameters as interpreted:
	--vcf 04406.04406.mutect.filtered.hetsP2.vcf
	--extract-FORMAT-info GT
	--out merge

After filtering, kept 4 out of 4 Individuals
Outputting FORMAT information for GT
After filtering, kept 4602 out of a possible 4602 Sites
Run Time = 0.00 seconds
#CHROM	POS	ID	REF	ALT	QUAL	FILTER	INFO	FORMAT	04406	04406-01	04406.04406-02.mutect.filtered.01_04406-01	04406-02
chr3	39435865	rs870843	G	C	.	PASS	AC=2;AN=6;DB;SF=0,1;SOMATIC;VT=SNP	GT:BQ:DP:FA:SS:AD	0/1:33:38:0.500:2:19,19	0:.:26:0.00:0:26,0	0:.:26:0.00:0:26,0	0/1:32:32:0.188:2:26,6 0/1
chr19	15989730	rs4020346	T	C	.	PASS	AC=2;AN=6;DB;SF=0,1;SOMATIC;VT=SNP	GT:BQ:DP:FA:SS:AD	0/1:34:48:0.417:2:28,20	0:.:26:0.00:0:26,0	0:.:26:0.00:0:26,0	0/1:30:32:0.161:2:26,5 0/1
chmod: cannot access `/04406/Processed/NGS.2_7_2b.WES_MosaicChildP2TumorP1Normal_Merged/': No such file or directory
04406
Using column name '04406' for 04406.04406-hets.mutect.filtered.02.vcf.gz:04406
Using column name '04406-02' for 04406.04406-hets.mutect.filtered.02.vcf.gz:04406-02
Using column name '04406-01' for 04406.04406-01.mutect.filtered.02.vcf.gz:04406-01
Using column name '04406.04406-01.mutect.filtered.02_04406-02' for 04406.04406-01.mutect.filtered.02.vcf.gz:04406-02

VCFtools - v0.1.12a
(C) Adam Auton and Anthony Marcketta 2009

Parameters as interpreted:
	--vcf 04406.04406.mutect.filtered.hetsP1.vcf
	--extract-FORMAT-info GT
	--out merge

After filtering, kept 4 out of 4 Individuals
Outputting FORMAT information for GT
After filtering, kept 3929 out of a possible 3929 Sites
Run Time = 0.00 seconds
#CHROM	POS	ID	REF	ALT	QUAL	FILTER	INFO	FORMAT	04406	04406-02	04406-01	04406.04406-01.mutect.filtered.02_04406-02
chmod: cannot access `/04406/Processed/NGS.2_7_2b.WES_MosaicChildP1TumorP2Normal_Merged/': No such file or directory
04134
Using column name '04134' for 04134.04134-hets.mutect.filtered.01.vcf.gz:04134
Using column name '04134-01' for 04134.04134-hets.mutect.filtered.01.vcf.gz:04134-01
Using column name '04134.04134-02.mutect.filtered.01_04134-01' for 04134.04134-02.mutect.filtered.01.vcf.gz:04134-01
Using column name '04134-02' for 04134.04134-02.mutect.filtered.01.vcf.gz:04134-02

VCFtools - v0.1.12a
(C) Adam Auton and Anthony Marcketta 2009

Parameters as interpreted:
	--vcf 04134.04134.mutect.filtered.hetsP2.vcf
	--extract-FORMAT-info GT
	--out merge

After filtering, kept 4 out of 4 Individuals
Outputting FORMAT information for GT
After filtering, kept 745 out of a possible 745 Sites
Run Time = 0.00 seconds
#CHROM	POS	ID	REF	ALT	QUAL	FILTER	INFO	FORMAT	04134	04134-01	04134.04134-02.mutect.filtered.01_04134-01	04134-02
chmod: cannot access `/04134/Processed/NGS.2_7_2b.WES_MosaicChildP2TumorP1Normal_Merged/': No such file or directory
04134
Using column name '04134' for 04134.04134-hets.mutect.filtered.02.vcf.gz:04134
Using column name '04134-02' for 04134.04134-hets.mutect.filtered.02.vcf.gz:04134-02
Using column name '04134-01' for 04134.04134-01.mutect.filtered.02.vcf.gz:04134-01
Using column name '04134.04134-01.mutect.filtered.02_04134-02' for 04134.04134-01.mutect.filtered.02.vcf.gz:04134-02

VCFtools - v0.1.12a
(C) Adam Auton and Anthony Marcketta 2009

Parameters as interpreted:
	--vcf 04134.04134.mutect.filtered.hetsP1.vcf
	--extract-FORMAT-info GT
	--out merge

After filtering, kept 4 out of 4 Individuals
Outputting FORMAT information for GT
After filtering, kept 3190 out of a possible 3190 Sites
Run Time = 0.00 seconds
#CHROM	POS	ID	REF	ALT	QUAL	FILTER	INFO	FORMAT	04134	04134-02	04134-01	04134.04134-01.mutect.filtered.02_04134-02
chmod: cannot access `/04134/Processed/NGS.2_7_2b.WES_MosaicChildP1TumorP2Normal_Merged/': No such file or directory
01599
Using column name '01599' for 01599.01599-hets.mutect.filtered.01.vcf.gz:01599
Using column name '01599-01' for 01599.01599-hets.mutect.filtered.01.vcf.gz:01599-01
Using column name '01599.01599-02.mutect.filtered.01_01599-01' for 01599.01599-02.mutect.filtered.01.vcf.gz:01599-01
Using column name '01599-02' for 01599.01599-02.mutect.filtered.01.vcf.gz:01599-02

VCFtools - v0.1.12a
(C) Adam Auton and Anthony Marcketta 2009

Parameters as interpreted:
	--vcf 01599.01599.mutect.filtered.hetsP2.vcf
	--extract-FORMAT-info GT
	--out merge

After filtering, kept 4 out of 4 Individuals
Outputting FORMAT information for GT
After filtering, kept 3651 out of a possible 3651 Sites
Run Time = 0.00 seconds
#CHROM	POS	ID	REF	ALT	QUAL	FILTER	INFO	FORMAT	01599	01599-01	01599.01599-02.mutect.filtered.01_01599-01	01599-02
chmod: cannot access `/01599/Processed/NGS.2_7_2b.WES_MosaicChildP2TumorP1Normal_Merged/': No such file or directory
01599
Using column name '01599' for 01599.01599-hets.mutect.filtered.02.vcf.gz:01599
Using column name '01599-02' for 01599.01599-hets.mutect.filtered.02.vcf.gz:01599-02
Using column name '01599-01' for 01599.01599-01.mutect.filtered.02.vcf.gz:01599-01
Using column name '01599.01599-01.mutect.filtered.02_01599-02' for 01599.01599-01.mutect.filtered.02.vcf.gz:01599-02

VCFtools - v0.1.12a
(C) Adam Auton and Anthony Marcketta 2009

Parameters as interpreted:
	--vcf 01599.01599.mutect.filtered.hetsP1.vcf
	--extract-FORMAT-info GT
	--out merge

After filtering, kept 4 out of 4 Individuals
Outputting FORMAT information for GT
After filtering, kept 3597 out of a possible 3597 Sites
Run Time = 0.00 seconds
#CHROM	POS	ID	REF	ALT	QUAL	FILTER	INFO	FORMAT	01599	01599-02	01599-01	01599.01599-01.mutect.filtered.02_01599-02
chmod: cannot access `/01599/Processed/NGS.2_7_2b.WES_MosaicChildP1TumorP2Normal_Merged/': No such file or directory
02025
Using column name '02025' for 02025.02025-hets.mutect.filtered.01.vcf.gz:02025
Using column name '02025-01' for 02025.02025-hets.mutect.filtered.01.vcf.gz:02025-01
Using column name '02025.02025-02.mutect.filtered.01_02025-01' for 02025.02025-02.mutect.filtered.01.vcf.gz:02025-01
Using column name '02025-02' for 02025.02025-02.mutect.filtered.01.vcf.gz:02025-02

VCFtools - v0.1.12a
(C) Adam Auton and Anthony Marcketta 2009

Parameters as interpreted:
	--vcf 02025.02025.mutect.filtered.hetsP2.vcf
	--extract-FORMAT-info GT
	--out merge

After filtering, kept 4 out of 4 Individuals
Outputting FORMAT information for GT
After filtering, kept 3586 out of a possible 3586 Sites
Run Time = 0.00 seconds
#CHROM	POS	ID	REF	ALT	QUAL	FILTER	INFO	FORMAT	02025	02025-01	02025.02025-02.mutect.filtered.01_02025-01	02025-02
chmod: cannot access `/02025/Processed/NGS.2_7_2b.WES_MosaicChildP2TumorP1Normal_Merged/': No such file or directory
02025
Using column name '02025' for 02025.02025-hets.mutect.filtered.02.vcf.gz:02025
Using column name '02025-02' for 02025.02025-hets.mutect.filtered.02.vcf.gz:02025-02
Using column name '02025-01' for 02025.02025-01.mutect.filtered.02.vcf.gz:02025-01
Using column name '02025.02025-01.mutect.filtered.02_02025-02' for 02025.02025-01.mutect.filtered.02.vcf.gz:02025-02

VCFtools - v0.1.12a
(C) Adam Auton and Anthony Marcketta 2009

Parameters as interpreted:
	--vcf 02025.02025.mutect.filtered.hetsP1.vcf
	--extract-FORMAT-info GT
	--out merge

After filtering, kept 4 out of 4 Individuals
Outputting FORMAT information for GT
After filtering, kept 3231 out of a possible 3231 Sites
Run Time = 0.00 seconds
#CHROM	POS	ID	REF	ALT	QUAL	FILTER	INFO	FORMAT	02025	02025-02	02025-01	02025.02025-01.mutect.filtered.02_02025-02
chr12	9455342	rs80134739	A	G	.	PASS	AC=2;AN=6;DB;SF=0,1;SOMATIC;VT=SNP	GT:BQ:DP:FA:SS:AD	0/1:33:49:0.417:2:28,20	0:.:44:0.00:0:44,0	0/1:33:34:0.176:2:28,6	0:.:44:0.00:0:44,0 0/1
chmod: cannot access `/02025/Processed/NGS.2_7_2b.WES_MosaicChildP1TumorP2Normal_Merged/': No such file or directory
04039
Using column name '04039' for 04039.04039-hets.mutect.filtered.01.vcf.gz:04039
Using column name '04039-01' for 04039.04039-hets.mutect.filtered.01.vcf.gz:04039-01
Using column name '04039.04039-02.mutect.filtered.01_04039-01' for 04039.04039-02.mutect.filtered.01.vcf.gz:04039-01
Using column name '04039-02' for 04039.04039-02.mutect.filtered.01.vcf.gz:04039-02

VCFtools - v0.1.12a
(C) Adam Auton and Anthony Marcketta 2009

Parameters as interpreted:
	--vcf 04039.04039.mutect.filtered.hetsP2.vcf
	--extract-FORMAT-info GT
	--out merge

After filtering, kept 4 out of 4 Individuals
Outputting FORMAT information for GT
After filtering, kept 3822 out of a possible 3822 Sites
Run Time = 0.00 seconds
#CHROM	POS	ID	REF	ALT	QUAL	FILTER	INFO	FORMAT	04039	04039-01	04039.04039-02.mutect.filtered.01_04039-01	04039-02
chr4	120382901	rs11098523	T	G	.	PASS	AC=2;AN=6;DB;SF=0,1;SOMATIC;VT=SNP	GT:BQ:DP:FA:SS:AD	0/1:34:44:0.409:2:26,18	0:.:44:0.00:0:44,0	0:.:44:0.00:0:44,0	0/1:33:30:0.133:2:26,4 0/1
chmod: cannot access `/04039/Processed/NGS.2_7_2b.WES_MosaicChildP2TumorP1Normal_Merged/': No such file or directory
04039
Using column name '04039' for 04039.04039-hets.mutect.filtered.02.vcf.gz:04039
Using column name '04039-02' for 04039.04039-hets.mutect.filtered.02.vcf.gz:04039-02
Using column name '04039-01' for 04039.04039-01.mutect.filtered.02.vcf.gz:04039-01
Using column name '04039.04039-01.mutect.filtered.02_04039-02' for 04039.04039-01.mutect.filtered.02.vcf.gz:04039-02

VCFtools - v0.1.12a
(C) Adam Auton and Anthony Marcketta 2009

Parameters as interpreted:
	--vcf 04039.04039.mutect.filtered.hetsP1.vcf
	--extract-FORMAT-info GT
	--out merge

After filtering, kept 4 out of 4 Individuals
Outputting FORMAT information for GT
After filtering, kept 3954 out of a possible 3954 Sites
Run Time = 0.00 seconds
#CHROM	POS	ID	REF	ALT	QUAL	FILTER	INFO	FORMAT	04039	04039-02	04039-01	04039.04039-01.mutect.filtered.02_04039-02
chr17	57260227	rs2017276	C	G	.	PASS	AC=2;AN=6;DB;SF=0,1;SOMATIC;VT=SNP	GT:BQ:DP:FA:SS:AD	0/1:32:39:0.538:2:18,21	0:.:45:0.00:0:45,0	0/1:34:38:0.158:2:32,6	0:.:45:0.00:0:45,0 0/1
chmod: cannot access `/04039/Processed/NGS.2_7_2b.WES_MosaicChildP1TumorP2Normal_Merged/': No such file or directory
22
