Trio, P1 Variants Filtered, P1 Total Variants, P2 Variants Filtered, P2 Total Variants
00030, 328, 8561, 328, 8561
00046, 331, 8307, 331, 8307
00064, 245, 6955, 245, 6955
00102, 402, 9121, 402, 9121
00112, 426, 7619, 426, 7619
00114, 403, 8322, 403, 8322
00118, 287, 6287, 287, 6287
00129, 539, 9239, 539, 9239
00138, 407, 7853, 407, 7853
00160, 367, 8968, 367, 8968
00166, 525, 8694, 525, 8694
00167, 386, 7884, 386, 7884
00192, 536, 8560, 536, 8560
00200, 346, 8118, 346, 8118
00219, 400, 8488, 400, 8488
00229, 416, 8227, 416, 8227
00262, 424, 9197, 424, 9197
00276, 104, 3758, 104, 3758
00297, 456, 8895, 456, 8895
00301, 956, 11846, 956, 11846
00940, , 0, , 0
00949, , 8759, , 8759
00958, , 7440, , 7440
01004, , 8305, , 8305
01014, , 8259, , 8259
01056, , 8670, , 8670
01100, , 9211, , 9211
01110, , 8507, , 8507
01120, , 0, , 9242
01123, , 8943, , 8943
01130, , 5272, , 5272
01158, , 8143, , 8143
01164, , 6455, , 0
01196, , 0, , 8406
01197, , 0, , 0
01221, , 8392, , 8392
01231, , 0, , 0
01242, , 7853, , 7853
01255, , 8659, , 8659
01291, , 5288, , 0
01306, , 0, , 9060
01335, , 6921, , 0
01357, , 8628, , 0
01359, , 0, , 0
01370, , 9071, , 9071
01372, , 0, , 7420
01384, , 8818, , 8818
01410, , 0, , 8609
01428, , 9550, , 0
01434, , 0, , 0
01435, , 0, , 0
01444, , 0, , 0
01458, , 8136, , 0
01469, , 0, , 0
01480, , 0, , 0
01524, , 0, , 9568
01534, , 0, , 0
01553, , 0, , 0
01584, , 9951, , 0
01599, , 0, , 0
