01624
01626
01628
01632
01638
01639
01650
01660
01742
01747
01763
01805
01810
01829
01834
01838
01841
01854
01880
01916
01946
01966
01969
01980
01986
01987
01990
02011
02025
02028
02069
02097
02163
02174
02183
02185
02244
02260
02301
02304
02312
02324
02325
02331
02391
02417
02453
02462
02475
02487
02490
02509
02546
02563
02568
02581
02589
02596
02625
02645
02666
02674
02675
02685
02725
02733
02752
02758
02767
02814
